{
	"Id": 54178,
	"Response": true,
	"Opcode": 0,
	"Authoritative": false,
	"Truncated": false,
	"RecursionDesired": true,
	"RecursionAvailable": true,
	"Zero": false,
	"AuthenticatedData": false,
	"CheckingDisabled": false,
	"Rcode": 0,
	"Question": [
		{
			"Name": "konfidal.eu.",
			"Qtype": 15,
			"Qclass": 1
		}
	],
	"Answer": [
		{
			"Hdr": {
				"Name": "konfidal.eu.",
				"Rrtype": 15,
				"Class": 1,
				"Ttl": 3600,
				"Rdlength": 27
			},
			"Preference": 10,
			"Mx": "alt3.aspmx.l.google.com."
		},
		{
			"Hdr": {
				"Name": "konfidal.eu.",
				"Rrtype": 15,
				"Class": 1,
				"Ttl": 3600,
				"Rdlength": 9
			},
			"Preference": 10,
			"Mx": "alt4.aspmx.l.google.com."
		},
		{
			"Hdr": {
				"Name": "konfidal.eu.",
				"Rrtype": 15,
				"Class": 1,
				"Ttl": 3600,
				"Rdlength": 9
			},
			"Preference": 5,
			"Mx": "alt1.aspmx.l.google.com."
		},
		{
			"Hdr": {
				"Name": "konfidal.eu.",
				"Rrtype": 15,
				"Class": 1,
				"Ttl": 3600,
				"Rdlength": 9
			},
			"Preference": 5,
			"Mx": "alt2.aspmx.l.google.com."
		},
		{
			"Hdr": {
				"Name": "konfidal.eu.",
				"Rrtype": 15,
				"Class": 1,
				"Ttl": 3600,
				"Rdlength": 4
			},
			"Preference": 1,
			"Mx": "aspmx.l.google.com."
		}
	],
	"Ns": null,
	"Extra": null
}